{
  "type": "service_account",
  "project_id": "api-5813363332021118548-357702",
  "private_key_id": "dc76c5e823a89fff6192c6fb5473d20f12a5ea70",
  "private_key": "-----BEGIN PRIVATE KEY-----\nMIIEvgIBADANBgkqhkiG9w0BAQEFAASCBKgwggSkAgEAAoIBAQC7kcrTvELOCfr0\n0c4fllatxh8goYpR5FEonK9uASPYc3aDXSbX/0DMoWa9KMeHTFOhHJlejC6o0yxM\noT1tRjhG6BvDTL1z+UjQrFELKu1pbRrl5AsUStsh8FBRxCdvxp1/A0SnuPxcokwU\nPMGJ0y0JLUhWs9ztG3VGhJ7X71XPnM13UnU/BnDk1DA3D+yMYHDlnHLgKrcl/Jtv\nUB7MWLAhsF6KR2Df5T24xjUCfUvxpR9WMd7uBLHFSrtYh85FC/R3QW+KCxRG7wvd\n9mab85YnpqoOXQPuh3GTizG+uIuLlTzgBSIjKyDBe1TlcoIUUkZh2wfgDzT+jMtm\n8Kzc4DkNAgMBAAECggEAG4JMA0u2vIMdiYRaZ6rj4YPkvXi+UY5bvMoQtzXMQmAv\nacq3+gZsmYEJEVsGuw1zAnZa+VEz5/y4oDB8UtIb9NebzW6Be/Mmk7wsp/z5aXSK\nn7Fsp+Lmn+P1KQN3Xomm6vbZaIPVNzzHovwvd6g/ZaYngtfJjK4clWVj6nrRKgEu\nYaom7ao8K40nS5bdUaP/MOx536Zp/Ry1PVkpvgWE3aTU876YIwbZoZ2VhxYaGB7U\n5CV1b9p+nLXLDgld0DSorK6CubY/M0nUexx0EyUBKpOQfW2sevuf5aV7Ke6AxV5x\n6FNu0uSXp9H2slPepVF+1eC6JCz45eCwgsGdC03M3QKBgQDvPWhJL7coxTez1S/k\nvojj7lELq1a2VGcrnMHtNKhRDHp0Up4DWQv8cqOh8s+hCV5l979m5Zh7gZjHv8p5\nLqx+E5mygsvTUx9AiUTG3qQD58m8/yFaXxpfX2mGc9Vua0qW3Ac0xcArGNixvl0y\ngHu7NHkB39/YKQc9anQr30UsbwKBgQDItbbpc8mk4za88Rww4OLQA/jy4dP36u4O\nuKEp70g+QZUgIvPCEou/2HMD3cRGezFqldQKmh04UZZh5xYil140eB1Dw+qTpYGM\ngIkgQrzX8eBFcza/De1jtMz1l1qu3RHbV/Ov0DERlAfOqA7dtfq+lJWvQWH7zOl8\nLH7sjQ/oQwKBgQDChoPNPmcHV5S7PJT8wZA9BQIRIvgWuPpKk+N7JF3XyPWor6Sb\nxEPiuLQkcnIw1pVTA+c1m2oowm+fu2q+rhzDRtyqMX/aDLRUnUi3C0EBi+6VJj3Q\nZZPkCIidMoJQjhzQHYgeeMyQPluz6r2M2rvAtCHQTGCOOo4QegaLxbdRMQKBgQCG\ncUoLiHbKjzQsTalfiFQFmJOaRfDRgTli/QNfbpvKr+1vMFptZjTcFeW88kC2IXER\nfzkgvOjTv7rm637lPtVoegjISqSHr/ZeIf84b9vFHozmmG1UfsTD4+jinTauKQD8\nFybxXphvuOOd5u7GTk6eeDLnyPkUTMcdWUTPuRGttwKBgFhbbPVQ8oBKlX721lcY\nxGpnwfesXU/KEEVOEGh4mhxpO0ZrES8vEfKqgjVfkMg8lJZ7pc+jX3WC3YxRJd9J\n4ztFobsHZvgBxYsgPX5bDveqMY97bDzBRuDGwAXzoALEtyb2quHd74QDNe4qvT/3\nW08iErN//1ChuZYkqX8qZmMl\n-----END PRIVATE KEY-----\n",
  "client_email": "recippo@api-5813363332021118548-357702.iam.gserviceaccount.com",
  "client_id": "114928463655208806911",
  "auth_uri": "https://accounts.google.com/o/oauth2/auth",
  "token_uri": "https://oauth2.googleapis.com/token",
  "auth_provider_x509_cert_url": "https://www.googleapis.com/oauth2/v1/certs",
  "client_x509_cert_url": "https://www.googleapis.com/robot/v1/metadata/x509/recippo%40api-5813363332021118548-357702.iam.gserviceaccount.com"
}
